CP045282
CP031235
HQ451074
KX009507
LT985241
LT985387
NC_019063
CP015071
CP015075
CP018974
CP031216
CP031322
CP033880
CP038457
KP294351
LR025098
LR025100
LR025105
LT838202
LT985264
LT985279
MF156266
CP018992
KU295133
CP019904
JN935899
KR822247
NC_019083
KX960110
AP018836
AP018837
AP018838
CP023897
CP024806
CP026476
CP026727
CP040399
CP042935
KP400525
KX894452
LC483179
MG228426
MG570092
MG702491
MG893567
MK412916
MK412917
MK412918
MK412919
MK416154
KU647721
AP019679
CP018951
CP019073
CP020512
CP021534
CP021682
CP021692
CP021738
CP023260
CP024818
CP024825
CP024828
CP024833
CP025948
CP026577
CP027204
CP028577
CP028705
CP029245
CP031138
CP032424
CP032889
CP033399
CP034591
CP034730
CP034737
CP034744
CP034748
CP034847
CP034957
CP034965
CP035125
CP036179
CP036205
CP042339
KP776609
KT824791
KU167608
KU167609
KX023261
KX094555
KX214669
KX214670
KX214671
KX447767
KX470734
KX470735
KX507346
KX618696
KX618697
KX618698
KX618699
KX618700
KX618701
KX618702
KX618703
KX618704
KX674681
KX683284
KX833071
KX960109
KY041843
KY435936
MF458176
MF679143
MG252891
MG545911
MG591703
MG773377
MG825368
MG825382
MG825384
MG833405
MH094148
MH105052
MH143074
MH234505
MH286945
MH286946
MH286947
MH286948
MH286949
MH286950
MH286951
MH286952
MH347484
MH349095
MH500845
MH523639
MK033577
MK033578
MK033579
MK033580
MK033581
MK033582
MK033583
MK033584
MK088485
MK256964
MK372382
MK372387
MK372389
MK372390
MK372391
MK372392
MK450346
MK450347
AP018141
AP018142
AP018146
MF547507
MF547508
MF547509
MF547510
MF547511
MH234497
MH234498
MH234499
MH234502
MH234503
MH234507
MH234509
CP035334
KU963389
CP010166
KC887916
MG462729
CP040383
CP025740
CP022155
CP026404
CP026206
CP030920
CP010162
LT985290
CP010165
CP041116
CP023869
CP026573
CP036182
CP035127
CP023830
CP023847
CP028323
CP045283
HE603112
KU932034
NC_018997
CP003112
CP016039
NC_017654
FN649415
CP000801
CP003114
CP017845
EU580135
FN822749
NC_009791
NC_011799
NC_014235
NC_017655
CP042634
CP010203
CP010188
CP010199
CP010216
CP010224
CP010211
CP006787
CP011138
CP014319
CP018108
CP018114
CP018120
CP018126
CP018985
CP035378
CP035474
CP035482
CP035521
CP035725
CP041340
LT985311
NC_022662
CP028615
CP028618
CP028621
CP028624
CP028627
CP028630
CP028633
CP028636
CP028639
CP028642
CP028645
CP028648
CP028657
CP028660
CP028663
CP028666
CP028669
CP028672
CP028675
CP028678
CP028681
AP009245
AY639886
CP002187
CP002518
CP002969
CP002971
NC_005970
NC_011408
NC_016903
NC_017636
NC_017661
NC_017662
AP009244
NC_011407
AP010956
HQ425708
NC_013363
NC_019076
CP031924
HQ622576
CP041342
CP025575
AF251289
JN692546
NC_005019
NC_019982
CP027259
CP032883
KC853436
NC_023324
CP025843
LT985386
AP010965
AP019766
CP021102
CP024053
CP024615
CP028114
CP028119
CP028688
CP028691
CP028696
CP031915
KM085452
NC_013368
AY929248
CP010159
CP011137
CP018987
CP031900
KM107848
LT985282
NC_006881
KC853438
KM085451
NC_023328
CP016040
CP030332
CP042591
CP010318
CP011066
CP019265
CP021100
CP035128
CP042649
CP010120
CP010241
CP043735
AM886293
NC_010558
CP018947
CP019028
CP021204
CP023845
CP024816
CP024831
CP025708
CP033847
CP041338
LC492469
CP020515
CP019076
CP023871
MG764548
AP018833
CP011064
CP021737
CP025626
CP029113
CP041393
KU043115
MF353155
MF156714
MH454107
MF156713
CP028576
LS992186
CP023378
AP018458
CP018982
CP029422
CP041573
CP014498
CP015140
CP018952
CP021180
CP028484
CP032258
LS992169
MG886288
AP019526
AP018457
CP015070
CP018969
CP019009
CP045279
AP018456
CP010882
CP021690
CP021871
CP029580
CP032202
CP035468
CP035478
CP035517
CP015086
CP009233
CP020117
CP027537
AP018574
CP042972
CP023827
CP018998
CP015077
CP020496
CP020519
CP016035
CP023259
CP040070
CP041531
CP023854
CP031137
MG702490
AP019191
CP023816
CP026474
CP034396
CP034401
CP040398
MG702492
CP024805
CP024863
CP033400
CP034956
LC483178
AP018137
CP023903
CP029107
CP029978
CP031233
CP032425
CP043230
CP043944
LS998786
MG649062
CP043948
CP018964
CP029368
CP008715
CP040922
MF156697
CP009860
CP018960
CP023361
CP033761
CP023145
CP027119
KX683283
CP011916
CP041301
CP038182
CP043741
MF679146
MG838205
MF679147
CP022732
MF589339
AP017618
AP017621
AP019676
CP000971
CP010232
CP029243
CP029744
CP034739
CP042586
KJ484628
MH580302
NC_010488
NC_025139
MF474175
CP019007
CP019247
CP021728
LC484363
LR025097
LT985319
MK416151
CP043743
CP041580
CP041582
JX077110
MG825378
NC_020271
CP041920
HF922624
KU578032
KU664810
KY007017
MK461928
MK461929
CP010141
CP021087
CP019055
CP031107
CP041303
KJ484636
MF174860
NC_025179
CP012113
CP033091
CP000836
CP010147
CP010316
CP018775
CP019282
CP020546
CP024140
CP025403
CP026643
CP026854
CP032263
CU928146
DQ381420
EU330199
KR827684
MH202955
MK430046
MN053930
NC_009837
NC_010409
NC_011964
NC_011980
CP010149
CP012636
CP014489
CP018994
CP023363
CP027485
KP398867
MH195200
MK878891
LT985293
CP009579
CP006635
CP019251
CP019268
CP020934
LS992172
MK878890
CP010126
CP031323
AY545598
CP025329
CP042245
CP005931
CP022731
CP023384
CP026494
CP030791
CP041299
CP043952
KC853435
KP119165
MG825372
NC_023327
CP019909
CP032891
CP022166
CP029214
CP042897
CP043737
KX276657
CP029748
CP041997
CP019018
CP021198
CP024827
AP009242
NC_011413
CP024864
CP032813
CP010124
CP024258
CP024295
CP025857
CP025861
CP013192
CP022913
CP025905
CP006000
CP017846
CP025867
CP025871
CP025882
CP025895
CP024235
FN822746
NC_014233
CP003299
CP023530
CP023533
CP024994
CP027392
CP031904
CP041001
NC_018654
CP003291
CP003302
CP011332
CP022087
HE610901
NC_018662
NC_018666
NC_022743
CP013186
CP023062
CP023552
CP009053
CP042952
CU928159
HE603111
NC_011752
CP023734
CP010136
CP035753
CP014200
CP014199
AP014806
EU935738
NC_013121
CP027120
AP017613
CP027522
CP028611
CP038793
CP040264
KJ484627
KJ484640
LT985320
NC_025138
NC_025145
CP009105
KM085449
CP009107
CP023542
KM085450
AY258503
CP027441
CP027451
CP027453
CP027463
CP027585
CP028382
CP031899
NC_007365
CP028120
AP018797
AP018803
AP019762
CP013024
CP027600
KC340959
KC340960
NC_022992
NC_022996
CP031895
MG545909
CP016548
CP019253
CP021197
CP023144
CP032880
KR905384
KR905386
KR905388
KR905389
KR905390
KU312044
KY565558
KY689635
MG196294
MG271839
MG601057
MG825371
MG825375
MG838206
CP018772
CP029742
CP033633
CP043035
KR905385
KR905387
HG428756
NC_022371
CP015141
CP019011
CP023387
CP024154
CP024254
CP025625
CP026855
CP033883
MF156268
CP032260
CP041552
CP041565
CP042951
GU256641
HE603110
KU932021
LT985300
MH287044
MH618673
MK396099
MK455767
NC_014843
NC_018995
FJ386569
NC_012487
CP005999
CP009052
CP040455
FN868832
LT985270
LT985278
MF344576
MK758104
NC_014477
CP027379
CP027324
CU928147
NC_011754
AP010959
CP006263
CP007135
CP014753
CP024129
CP024137
CP024158
CP024480
CP027545
CP027549
CP031909
NC_013354
CP031918
CP001847
CP003111
CP015242
KX808482
NC_013942
NC_017657
CP025880
CP025852
CP025891
CP025927
CP011418
CP041537
CP016498
CP021289
CP041358
CP041539
LS992181
LT985219
LT985226
CP040454
CP027641
CP027674
CP027343
CP027375
CP027458
CP027581
CP028383
CP028610
CP024291
CP042297
CP027521
CP042247
CP001162
NC_012944
CP017221
CP022610
KU355873
CP013027
LT985252
CP038792
CP009167
AP001918
NC_002483
CP010345
CP027256
MF370216
CP011496
CP015239
CP027311
CP031893
CP027367
CP010181
CP010184
CP010192
CP011019
CP027765
AP018801
CP027455
JQ418522
CP010123
CP001065
NC_010720
CP023358
CP026754
CP025844
CP043740
CP027448
KU932028
KY416992
CP023355
CP023389
CP032799
GU371926
KF582523
NC_023315
CP010209
CP010215
CP010223
CP013026
CP021847
CP033634
KU254579
AP018140
CP027439
CP021843
CP032810
MK092064
CP043748
CP015914
CP037904
CP041111
CP035752
CP041534
CP043219
AP018353
CP023354
CP026403
CP042621
CP042642
CP043759
LT838198
LT838203
CP024151
CP039405
CP027551
AP017611
CP012626
CP010158
AF550679
NC_004998
KJ170699
NC_024956
KJ484626
LS992167
NC_025175
KU932025
CP012377
CP023367
CP019456
CP015836
CP023959
MK291500
CP014320
CP030329
AP018139
AP018147
CP026201
CP031655
CP032937
HG003695
JQ364967
KT002541
KX246267
KY463220
MF353156
MG515250
MH213345
NC_019089
NC_025106
MG878866
KJ484634
NC_025141
CP021733
LO017736
LO017738
MK492688
CP010372
CP018990
CP021880
CP022227
CP024860
CP027130
CP027703
CP028587
CP029575
CP032877
CP040885
CP042337
CP043745
KP789020
LN850163
LS992193
CP023372
CP024856
LO017737
CP009231
CP009232
CP023835
CP012197
CP041564
CP024852
FQ482074
NC_014615
CP038858
CP019561
MK134376
CP024133
CP031295
AY214164
CP024157
CP035337
CP035355
NC_006671
MK419152
CP041439
KT990220
MG197491
CP030283
CP019272
KU321583
MG197495
MG197498
MG197502
MG197503
CP017633
CP017981
CP019276
CP024823
CP025949
CP026576
CP034846
JN232517
KT879914
KX023260
KX503323
KX608544
KY865321
KY865322
MG197489
MG197492
MG197496
MG197497
MG197499
MG591701
MH329656
MN101857
NC_019073
CP034592
CP034736
AP018572
CP035314
CP036180
KJ020575
MG197488
MG197490
MG197494
MK079574
CP032991
CP031548
CP031766
CP024975
CP042629
MG904998
AP018354
CP019244
AP010955
AP019677
CP018107
CP018113
CP018119
CP018125
MG677985
NC_013362
CP040265
KT845955
KY865320
AP010910
CP024296
CP029104
FN649417
NC_013507
CP024249
CP024662
CP006001
CP025850
CP025919
CP018958
CP028193
AB255435
NC_008460
CP023821
CP010138
CP024281
FN554767
LT985227
LT985305
LT985306
NC_017627
LS999561
AP014804
AP014877
CP000913
CP013834
CP021938
CP023351
CP027377
CP027385
CP029578
CP033881
CP035518
CP041524
FR851303
KU695535
LS992194
NC_018998
AP018811
AP019705
CP028322
CP037947
CP041536
LT985217
AP018799
CP011065
CP011135
CP012632
CP014112
CP018973
CP023828
CP024242
CP024888
CP027536
CP032205
CP032262
CP035470
CP035479
CP035722
CP041530
CP041545
CP041562
CP041574
FJ449539
HM355591
JF779678
JN087528
JN087529
KJ484631
KU932024
LC163971
LT985214
LT985265
LT985272
LT985274
LT985304
NC_019057
NC_019071
NC_019072
NC_025177
CP019910
CP041527
CP023369
CP015160
CP002168
CP012634
CP014110
CP014496
CP041551
CU928148
CP014668
CP041523
AP018785
AP009379
CP000244
CP007150
CP014493
CP014523
CP028321
CP029577
GQ398086
NC_007941
NC_013175
CP030770
CP041566
CP010239
CP043945
CP010174
MN101852
AP014876
AP018136
AP018138
AP018144
AY458016
CP015072
CP020517
CP021210
CP021684
CP023733
CP023895
CP024652
CP025139
CP025253
CP025254
CP029974
CP034964
CP041339
CP042338
CP042601
CP043229
CP043949
DQ364638
JF927996
JQ432559
JX627737
JX997935
KR078259
KU288634
LS992188
LT985267
LT985277
MG825370
MK048477
MK878893
MN101854
NC_005327
NC_009133
NC_019090
NC_019095
NC_019424
NC_020278
CP041579
CP041583
MK878892
CP037912
CP012495
CP012493
CP015246
CP031907
CP042949
CP028121
CP027222
AP018800
AP018805
AP019763
CP014077
CP028118
AP010963
CP021337
CP021341
CP027553
CP027576
CP027596
CP027767
CP028431
CP028434
CP029691
NC_013366
CP045828
CP023674
CP024055
CP024617
AF401292
NC_009602
CP017435
CP017437
CP017439
CP017441
CP017443
CP017445
CP017447
CP018253
CP028612
CP028651
CP028653
CP028655
CP028684
CP028686
CP028689
CP028692
CP028694
CP028697
CP028699
CP028701
CP031914
CP032796
CP032798
CP032802
CP032806
CP032812
CP038495
CP040312
CP028595
CP028597
CP028599
CP028602
CP028606
CP028616
CP028619
CP028622
CP028625
CP028631
CP028634
CP028637
CP028640
CP028643
CP028646
CP028649
CP028658
CP028661
CP028664
CP028667
CP028670
CP028673
CP028676
CP028679
CP028682
CP032790
CP032792
CP032794
CP032804
CP032809
CP040306
CP040308
CP040310
CP040315
CP040317
AB011549
AF074613
AP018489
AP018692
CP001926
CP008958
CP012803
CP015021
CP015022
CP015854
CP015856
CP017250
CP017670
CP018238
CP018240
CP018242
CP018244
CP018246
CP018248
CP018251
CP018626
CP022052
CP022688
CP028608
CP030765
CP034793
CP034795
CP034796
CP034805
CP034807
CP034809
CP035705
CP040571
CP040573
CP041624
CP043012
CP043016
CP043020
CP043023
CP044139
CP044144
CP044146
CP045864
GU363949
NC_002128
NC_007414
NC_017907
NC_019041
CP017252
CP001163
CP001369
CP008806
CP010305
CP015816
CP015844
CP015847
CP016626
CP028628
CP034800
CP034802
CP035367
CP035546
NC_011350
NC_013010
CP013028
CP027326
CP027364
CP027446
CP027460
AP010954
AP018810
AP019704
AP019707
AP019709
CP006028
CP007138
CP022408
CP027220
CP027318
CP027339
CP027391
CP027436
CP027444
CP027456
CP027473
CP027547
CP028113
CP028115
CP028124
CP028380
CP031911
CP031920
CP031923
CP037944
CP037946
HM138194
NC_013369
CP028111
GQ259888
NC_013728
CP037942
CP010201
AP009243
NC_011416
CP002730
NC_017639
CP042633
MG904991
CP010187
CP010197
CP010207
CP010214
CP010222
CP011136
CP032516
LT985309
CP003035
NC_017647
CP030112
CP024887
MG557999
KU295135
CP018949
CP018981
CP010881
CP021734
KU295131
KP125892
MH328007
CP018968
KY075650
AP002527
AP017614
AP017619
AP017622
AP018110
AP018355
AP018412
AP018806
AP018812
AP018926
AP019686
CP006264
CP007134
CP009581
CP010220
CP015913
CP016185
CP016186
CP016187
CP016405
CP016547
CP018106
CP018112
CP018118
CP018124
CP019052
CP019254
CP019264
CP019277
CP020548
CP021176
CP021194
CP021205
CP024135
CP024139
CP024142
CP024148
CP024156
CP024858
CP026644
CP028601
CP029059
CP029184
CP029977
CP030284
CP030766
CP031296
CP031550
CP032940
CP032990
CP034400
CP034405
CP041113
CP041571
CP041921
CP042249
CP042471
CP043014
CP043017
CP043036
CP043182
CP043194
CP043196
CP043198
CP043200
CP043202
CP043204
CP043206
CP043208
CP043210
CP043212
CP043220
FR851304
JN797501
KF601686
KJ020576
KM207012
KP091735
KP198615
KP347127
KU761326
KU870627
KU932022
KU932023
KU934208
KX013538
KX013539
KX013540
KX032519
KX034083
KX084393
KX254342
KX580716
KX592672
KX772778
KY012274
KY012275
KY075651
KY075654
KY075656
KY075657
KY075658
KY075661
KY075662
KY405001
KY471144
KY471145
KY471307
KY471308
KY471309
KY471310
KY471311
KY471312
KY471313
KY471314
KY471315
KY565557
KY657476
KY657478
KY693674
KY792081
KY795977
KY795978
KY802014
KY829117
KY853650
LC469775
LC473131
MF175187
MF175188
MF175189
MF521836
MF693349
MF978388
MG210938
MG210940
MG489944
MG515249
MG557851
MG594798
MG594799
MG594800
MG598814
MG598815
MG598816
MG725031
MG808035
MG825369
MG825374
MG825380
MG946761
MH176237
MH202956
MH213346
MH271383
MK542639
MK571810
MN232179
MN232180
MN232181
MN232182
MN232183
MN232184
MN232185
MN232186
MN232187
MN232188
MN232193
MN232196
MN232197
MN232198
MN232199
MN232200
MN232201
MN232202
MN232203
MN232204
MN232205
MN232206
MN232207
MN232208
MN232209
MN232210
MN232211
MN232213
NC_002525
NC_019039
NC_020270
CP016551
CP032239
CP029244
CP033379
CP010234
CP019216
CP021842
CP021846
CP030285
CP029181
CP019262
CP034789
MG825383
CP010243
CP029493
CP029688
CP034590
CP034735
CP033251
CP034728
CP034746
CP042894
CP034786
CP034845
CP036204
CP032890
CP033632
CP021203
CP033882
CP009051
CP009168
CP010173
CP011063
CP012491
CP012494
CP016549
CP019075
CP021729
CP023381
CP023732
CP023961
CP024817
CP024832
CP026475
CP026725
CP027199
CP032939
CP035333
CP038506
CP040069
CP041576
CP042641
KU980950
KX518745
KX880944
MF679145
MG196293
MG825379
MK256965
MK410117
MK455768
AP010962
AP018798
AP018809
CP003110
CP013030
CP015837
CP015997
CP019054
CP020522
CP021336
CP021340
CP022733
CP027443
CP028125
CP033848
CP035313
CP037905
CP040920
CP041549
CP041922
CP045829
MH580301
MH844525
MN232192
NC_013370
NC_017653
CP042617
LT985263
CP023896
CP029103
CP031232
CP031654
CP034959
CP043218
CP010146
CP020936
CP014083
CP042866
CP018961
CP042868
CP018989
KY798506
CP014669
KJ146688
NC_025167
KU295132
CP018999
CP021195
CP035124
CP018955
CP020523
CP000797
CP013193
FN822748
NC_009788
NC_014234
CP024976
CP029058
CP019248
CP010317
CP019905
CP010130
CP010233
CP018104
CP018110
CP018116
CP018122
CP020547
CP021841
CP021845
CP022734
CP025751
CP032888
CP041394
CP041441
CP042618
KU130396
MH674341
KC788405
NC_022885
CP015161
LT985321
AP018575
CP008735
CP010142
CP012627
CP018774
CP018975
CP020511
CP027327
CP028485
CP035469
CP035721
CP040270
CP041561
CP041679
EU418926
EU418931
EU935740
KU355874
KX246268
LS992187
LS999562
MG948333
NC_013120
NC_024977
CP041558
KJ866866
AP009241
AP014805
AP017892
AP017893
CP002186
CP002517
CP002731
CP002968
CP003290
CP006641
CP008733
CP008734
CP008736
CP008737
CP008738
CP014494
CP015916
CP015996
CP018625
CP018946
CP018993
CP019215
CP019252
CP021208
CP023356
CP023362
CP023365
CP023370
CP023376
CP023382
CP023385
CP023534
CP024093
CP024146
CP024152
CP024292
CP024481
CP024822
CP024854
CP026726
CP027374
CP027395
CP027535
CP029213
CP029975
CP030282
CP030921
CP031111
CP031765
CP031903
CP032264
CP034804
CP036203
CP039299
CP041521
CP041533
CP042248
CP042631
CP043228
CP043738
CP043943
CP043947
CP044137
EU418923
GU371927
HE610900
HG970648
HQ114281
HQ114282
HQ114284
JQ901381
KF787110
KJ125070
KJ484629
KJ484630
KJ484635
KJ484637
KJ484638
KJ484639
KJ563250
KM052220
KM377238
KM377239
KM377240
KM409652
KP198616
KT282968
KT779550
KU932026
KU932027
KU932029
KU932030
KU932032
KU932033
KX443694
KX452392
KY748188
KY748189
KY748190
KY964068
LC019731
LC480203
LC485173
LM651376
LN735558
LN735559
LN735560
LN735561
LT669764
LT838199
LT838204
LT985231
LT985235
LT985236
LT985238
LT985248
LT985256
LT985268
LT985273
LT985280
LT985281
LT985283
LT985286
LT985288
LT985289
LT985295
MF078004
MF152729
MF344575
MG516908
MG545910
MG764547
MG825376
MG844436
MG904995
MG948330
MG948331
MG948332
MG948334
MH422553
MH472638
MH847038
MH847571
MK070495
MK181557
MK181558
MK181559
MK181560
MK181561
MK181562
MK181563
MK181564
MK181565
MK181566
MK181567
MK181568
NC_011419
NC_014383
NC_016904
NC_017637
NC_017642
NC_017665
NC_018659
NC_019043
NC_019044
NC_019061
NC_019097
NC_022742
NC_023329
NC_024955
NC_024975
NC_024976
NC_024978
NC_024979
NC_024980
NC_025140
NC_025142
NC_025143
NC_025144
NC_025147
NC_025176
NC_025180
NC_025198
KY865323
CP028168
KC853439
NC_023326
CP036181
MG825377
CP031897
EF088686
NC_010898
CP010227
M37402
NC_001373
CP042623
CP042648
MG649064
CP032884
LT985246
CP006638
KM107843
CP026208
CP031135
CP019284
CP021730
CP022157
CP031109
CP042643
CP043184
CP043186
CP043188
DQ390454
DQ390455
HE613857
HM138652
HM138653
JX065630
JX065631
KJ484641
LT985242
LT985245
LT985251
LT985259
MG904997
NC_009131
NC_009132
NC_014231
NC_019033
NC_019087
NC_019098
NC_024974
AY522431
NC_007682
MK356561
LS998787
CP020059
KU295134
AP018362
AP018363
CP009862
CP014524
CP018945
CP018959
CP018963
CP018977
CP019006
CP019026
CP020119
CP025710
CP028486
CP030335
CP032203
CP041525
CP041575
FR850039
JN566044
JX469383
JX515587
KC960485
KF534788
KF914891
KJ440076
KJ933392
KT982614
KT982615
KT982616
KT982617
KT982618
KT989376
KU051707
KU051709
KU726588
LT838197
LT985266
MG886286
MK416183
MK878894
NC_015599
NC_019082
NC_022374
NC_022375
NC_023909
NC_023910
NC_024967
NC_025183
HF545433
NC_020086
CP022226
CP028588
CP032878
CP043038
CP032885
AP019765
CP015245
CP028123
AP010964
CP031901
KM287568
NC_013367
DQ916145
FJ004638
KY348421
NC_010883
NC_011228
CP043037
FJ573246
FJ985252
KC853437
NC_011977
NC_012882
NC_023325
CP038795
DQ995352
NC_008487
AP009246
AP017616
CP000973
CP006634
CP008718
CP010878
CP011140
CP012629
CP015142
CP016041
CP018208
CP018941
CP018942
CP018966
CP018972
CP018980
CP018996
CP019024
CP023824
CP023832
CP023833
CP023855
CP030114
CP030333
CP031657
CP033765
CP033851
CP035324
CP035473
CP035481
CP035520
CP035724
CP036207
CP040271
CP041440
CP041450
CP045285
DQ311641
HG941720
KT693143
KT693144
KT693145
LC438464
LT985232
LT985240
LT985255
LT985285
NC_010486
NC_010885
NC_011411
CP018944
CP025944
CP038456
CP021538
CP019261
CP042630
CP042640
CP033095
CP042600
CP031894
KX032520
LR025103
CP010880
CP015977
CP016008
CP016037
CP016550
CP017246
CP018773
CP018950
CP019016
CP019072
CP019908
CP020376
CP021418
CP021419
CP021735
CP023373
CP023380
CP023829
CP023836
CP023846
CP023905
CP024132
CP024149
CP024670
CP024861
CP025853
CP025875
CP025925
CP026728
CP027257
CP028167
CP028715
CP029976
CP033849
CP033879
CP035323
CP035379
CP035754
CP037906
CP038181
CP042607
CP042644
CP042647
CP042970
CP044138
JN194214
JX981514
KM212169
KM580532
KM580533
KU743383
KX084392
KX129783
KX254343
KX447768
KX555451
KX555452
KX570748
KX711706
KX711707
KX711708
KX772777
KX894453
KY012276
KY075652
KY075653
KY075655
KY075660
KY463451
KY463454
KY471146
KY565556
KY582848
KY652381
KY689634
KY770023
KY770024
KY770025
KY865319
KY964067
LC227558
LC477138
LC477294
LC479085
LC479086
LC479452
LS992170
LT838201
LT985276
LT985318
MF093645
MF136779
MF175184
MF175185
MF175186
MF175190
MF175191
MF381175
MF381176
MF449287
MF774182
MF774184
MF774188
MF978387
MG210937
MG210939
MG257881
MG557852
MG557853
MG557854
MG825367
MH938808
MK172815
MN232194
NC_022105
LT985310
MG550958
FJ705806
NC_012886
CP016036
CP021206
CP029123
CP034397
CP034402
CP040384
LT985244
MK033499
CP006029
CP007137
CP020513
CP024824
CP029743
MN101850
MH844629
MH001166
MN101853
CP045742
CP041528
CP010161
MN057686
AB011548
CP012804
CP014109
CP028613
CP032800
CP032807
CP035756
CP043013
CP045865
EU675685
KX356458
NC_002127
CP006633
CP023261
CP023958
CP041118
CP034851
AB040037
CP023374
CP029121
CP031658
CP035488
HQ622575
KM085453
NC_008444
NC_019077
CP031925
CP028593
CP028604
LT985294
CP042624
CP041117
CP045830
CP023904
CP022156
JQ418533
NC_019093
CP025574
CP036244
CP026724
KY706108
CP011493
CP013832
CP013836
CP024718
CP024721
CP041547
CP006789
CP013657
CP013833
CP014321
CP018978
CP019014
CP021937
CP023850
CP041542
CP041557
CP041560
EU935739
GU371928
HG941719
KT988018
LS992182
LS992191
LT985213
LT985221
LT985271
NC_013122
GU371929
AP018939
CP018954
LR025102
CP018771
CP011335
CP010139
KT347600
KR653209
MG014720
MG656414
MG014722
MG591702
CP011062
CP019214
CP024143
CP026492
CP026642
CP027202
CP034788
CP036178
CP038139
CP042587
MG014721
MG825373
MH459020
MH491004
CP017632
MF678350
CP015833
CP019019
CP019260
CP021196
CP021209
CP021727
CP022165
CP022735
CP023143
CP025402
CP029215
CP032993
CP033636
CP034390
CP034785
CP038454
CP042628
CP042639
CP042895
CP042898
CP043034
CP043951
DQ517526
KU254578
KU341381
KU743384
KX023262
KX084394
KX129782
KX246266
KX518743
KY019258
KY019259
KY075659
KY421937
KY689632
KY689633
KY924928
KY990887
LT985297
MF135536
MF174859
MG662415
MG773376
MH077952
MH128771
MH208235
MH287084
MH287085
MH329870
MK169211
MK461931
MN232189
MN232191
MN232195
NC_009838
CP031547
KX254341
CP030940
MH924589
CP019559
CP040382
CP042616
MG878867
CP010144
CP010153
CP025868
CP025870
CP025883
CP025894
CP041451
CP029421
CP031294
CP033097
CP025897
AP017612
CP003298
CP012114
CP014490
CP015915
CP019002
CP019013
CP019027
CP019283
CP022085
CP022167
CP023851
CP025888
CP027358
CP027369
CP031136
CP041543
CP041569
CP045278
HG530657
KY515224
KY515225
NC_018651
NC_023916
CP017847
CP020118
CP028430
CP028433
CP034729
CP034747
CP034844
CP039754
CU638872
KP792123
MG825385
MG904996
NC_011917
CP010244
CP033252
MG516909
CP035347
CP035364
CP032995
CP032988
CP043734
CP043751
CP038140
CP041443
CP041453
MK656937
CP024130
CP024144
KX023259
CP010154
MG860488
CP024153
CP024136
CP021103
MG462728
KY887590
LT985250
AP012208
CP010373
CP015139
CP015835
CP018956
CP019053
CP020049
CP020056
CP020524
CP021719
CP021936
CP026207
CP026405
CP031106
CP031297
CP031549
CP031610
CP032238
CP040884
CP043190
CP043192
CP044142
FJ621586
FJ621588
HQ023862
HQ023863
HQ023864
JF503991
JF714412
KC999035
KF152885
KJ802404
KP056256
KP276584
KT997783
KU997026
KY887591
KY887595
KY887596
LT985218
LT985220
LT985222
LT985224
LT985225
LT985228
LT985243
LT985253
LT985258
LT985260
MK123267
MK388209
MK439959
MK638972
MK733575
NC_012690
NC_012692
NC_017645
NC_018994
NC_019045
NC_019066
NC_019069
NC_022377
KP345882
AP018143
AP018145
CP012902
CP029118
CP040068
HQ023861
MG450360
NC_019065
KX156772
KX156773
CP042646
LT985249
MG252895
CP021536
CP019001
CP006642
CP041112
LT985234
CP025845
KM023153
KY051550
MG773378
CP018207
CP042900
CP042902
CP042974
CP026578
CP040928
LT985257
CP024651
CP025252
LT985216
CP023852
NC_002119
X04466
CP020050
CP021720
CP043021
CP043022
FR851305
NC_019038
CP012638
CP041681
CP042635
CP010198
CP010217
CP010189
CP010204
CP010210
DQ995354
NC_008489
CP040267
CP006786
CP008716
CP010879
CP012637
CP014318
CP018967
CP018997
CP023831
CP023848
CP024719
CP024722
CP028586
CP031132
CP032517
CP032876
CP034960
CP035126
EU090225
MG649065
NC_009781
NC_022649
CP041341
CP003036
CP011139
CP023837
CP023898
CP040268
CP045284
NC_017648
CP015144
CP010190
CP010202
CP010212
CP010218
CP010225
AP017615
CP018986
CP019955
CP041115
KJ470776
NC_024962
MN101858
CP033094
CP016183
CP016184
CP029631
CP029690
MN101856
CP041449
KX129784
CP024236
MN232190
CP037911
LT985296
MG904992
MG948335
KF362122
NC_023277
AP010961
NC_013365
KF362121
NC_023289
CP014086
AP018576
CP020051
CP021537
CP022228
CP027309
CP028585
CP029365
CP031764
CP031767
CP031917
CP032875
CP034790
CP042632
CP043746
MN101851
MN101855
CP042620
AP018804
CP041570
CP014078
MF157411
KM107847
CP035361
CP017224
CP023868
CP043749
CP043756
CP043760
GQ374156
GQ374157
JN979787
JN985534
KX257264
KX257265
KX452393
KX452394
NC_013782
NC_019084
NC_019085
NC_019086
CP010156
CP034850
CP041445
KT074362
KY612498
KY612499
KY612500
CP025945
CP038459
AY589571
CP039302
NC_011418
LT985313
CP028466
AP019680
CP033397
CP034742
CP034743
CP034954
CP026574
CP032420
CP011067
CP024802
CP036184
CP042612
AY589570
KF992024
CP006637
CP040073
CP019255
CP033764
LT985292
LS998788
CP026205
CP029112
CP041548
CP035471
CP015078
CP027137
CP034398
CP034403
CP041567
CP041568
JF785549
KJ413946
LT985223
NC_015872
NC_024954
CP019907
CP018105
CP018111
CP018117
CP018123
MG836696
CP043758
HG963476
NC_024960
MG780294
CP043753
LT985322
CP041444
CP019017
CP042971
CP045280
CP038458
LR025104
CP041553
CU928149
NC_011739
CP020836
CP031234
CP032994
EU370913
HG963477
NC_010378
NC_024961
CP017222
CP023379
FJ666132
JN887338
NC_013503
NC_019013
JN935898
LT985315
NC_019088
CP022281
AP019764
CP010127
CP023360
CP024290
CP024664
CP029061
JN935897
LS999563
LT985261
MH121702
NC_019046
CP024261
CP025864
CP025879
CP027574
CP031110
JF776874
JQ269336
KU932031
LT985262
MG649063
MH507589
MK965545
NC_019067
NC_019096
CP017225
CP023262
CP024804
KM107839
CP034962
CP023263
CP041121
MF156267
CP030116
CP032422
CP011142
CP031921
CP030793
GU214746
NC_013652
CP032886
CP012492
CP012496
CP027438
CP012498
CP012499
CP012500
CP012501
CP042296
KT992796
CP042619
CP002732
NC_017640
CP024145
CP028195
MG904993
CP022280
DQ388534
FM180569
AB024946
CP021211
NC_002142
AP019857
CP001064
CP011417
NC_010719
CP025854
CP025876
CP025928
CP025890
CP025841
AP014654
CP024227
CP024248
CP024265
CP024272
CP024274
LN908840
CP024255
CP024259
AB702969
CP023347
CP024668
CP025848
CP025863
CP025908
CP025911
CP025917
CP025921
NC_007635
CP013194
CP023352
CP000795
CP017848
CP022914
CP024237
CP024262
CP024277
CP029980
FN822745
NC_014232
CP013191
LT174529
CP025858
CP024294
CP025860
CP025904
FN649418
CP029982
CP000799
NC_009790
JQ776506
NC_021511
CP035489
MK753225
MK753227
KT950740
KT950741
MH192349
AF197335
CP016009
NC_002487
CP010182
CP010185
CP010195
CP019956
CP009169
CP003037
CP017223
CP035351
KM107838
NC_017649
AP019767
AJ001708
NC_001537
CP035472
CP035480
CP035519
CP035723
CP040072
CP040386
DQ995353
NC_008488
CP014084
CP041577
CP026209
AY360321
CP000798
CP003113
CP006639
CP010118
CP012198
CP023375
CP023872
CP026572
CP043755
DQ995355
EF090911
EU580136
FM180570
FN822747
HM371192
JN012467
JN412137
KX291024
LT985298
LT985307
LT985314
LT985316
NC_005324
NC_008490
NC_008597
NC_009789
NC_011795
NC_017658
NC_019040
NC_019060
NC_019070
NC_019080
CP008717
JN253636
NC_019075
AP019768
CP003038
CP003292
CP003300
CP003303
CP006785
CP008720
CP011143
CP012630
CP014317
CP015143
CP023825
CP023858
CP023901
CP026493
CP027131
CP029106
CP029183
CP030338
CP031905
CP041003
CP042626
CP043221
CP045286
EU999782
HE610902
HQ328804
KM107846
KX009020
U81610
CP001833
CP027128
CP028575
CP029109
KX009021
CP019004
CP023264
CP010877
CP035475
CP035483
CP035522
CP035726
KJ484633
CP018984
CP005932
AP019858
CP019270
CP032887
DQ995351
MK599282
CP041119
CP041120
CP041446
CP032423
CP028467
CP009074
EF536825
NC_010257
FJ914220
LS992173
NC_015472
CP029182
CP034848
MG825381
CP010164
CP035345
CP042608
CP020060
CP033093
CP042589
CP010194
CP023675
CP024054
CP024616
LT985239
AP018807
CP015845
CP022728
CP022729
CP025752
CP028594
CP028605
CP041625
MG904994
CP001165
CP008807
CP027450
NC_011351
CP022051
KY446064
GQ149345
NC_019054
MK753226
MK753228
KY563785
GQ149342
GQ149346
GQ149348
NC_019050
NC_019053
NC_019058
KY554955
JN232518
NC_019074
KY865324
CP019010
CP011333
CP027393
AP019190
CP015838
CP021533
CP021693
CP021739
CP021882
CP023900
CP023957
CP029367
CP031656
CP034963
CP040923
CP042936
KP789019
KY463221
MK416155
CP032938
KU043116
MF679144
CP025846
CP006002
CP025866
CP025893
CP025914
CP024231
CP025872
CP025884
CP025899
LN908839
CP019954
CP023350
MG197493
CP019269
MF535908
MK416152
CP026579
CP038455
CP020510
CP027200
CP020057
CP024094
JQ480155
NC_019091
CP037909
MH938807
CP010245
CP040071
CP040385
CP042603
KP205272
M28829
MH718732
NC_001740
CP016038
CP010193
KU963390
CP001927
NC_017903
CP023822
GQ149344
NC_019056
CP039301
LT985299
AY608912
NC_005923
KU254581
JN596280
NC_019081
CP042870
HQ201416
NC_019062
KJ541070
KJ541071
CP041114
AP019678
CP010155
CP035315
CP040929
KU254580
MH229869
MK731977
JQ269335
KF738053
LT827129
LT985317
MH121703
NC_019047
NC_025182
CP021881
MF510423
CP021681
CP026200
CP042872
CP010131
KP143090
LT985301
AB905284
NC_024968
AB905285
NC_024969
CP014090
JQ319768
NC_019990
FJ696404
MH133192
NC_014356
CP010175
CP012628
CP018943
CP019025
CP035362
J01566
KJ484632
LC438465
NC_001371
NC_025178
CP015917
CP032941
LT985237
LT985284
CP000972
CP010128
CP014198
CP021101
CP032881
NC_010485
LT985308
AY913943
CP041555
HE603113
NC_013589
NC_018996
LT985303
CP034733
CP034751
CP042605
CP042610
CP042613
CP018971
CP042604
CP042611
CP042625
CP000974
NC_010487
AP018573
AP019710
CP009073
CP009582
CP009861
CP020497
CP020518
CP023368
CP024829
CP024865
CP025877
CP028194
CP032259
CP040921
CP042622
LT985302
CP019249
CP011337
CP023532
GQ149343
GQ149347
NC_019051
NC_019052
NC_011514
CP015073
CP030792
AP019859
CP008719
CP011141
CP023838
CP023857
CP023902
CP024803
CP027132
CP027201
CP029105
CP029366
CP029581
CP030115
CP033398
CP033766
CP034955
CP034961
CP042636
CP021721
MF543358
MG800339
AY167049
CP025946
CP010179
CP025711
CP006788
NC_022650
KF701335
NC_023907
CP024128
CP027203
CP032987
CP042602
KX580713
KY463452
MF136778
MF489760
MF678351
MF978389
MF990207
MG552133
KP324830
CP034731
CP034749
KR259130
KR259131
NC_010064
KT207463
CP035352
MF422120
KM107841
CP018988
CP023823
CP024853
CP027258
LS999564
CP006640
CP025915
LT985287
CP019003
CP042340
CP042590
CP019022
CP042614
CP014088
MH580300
CP019074
CP010168
KX518744
KC853434
NC_023323
CP034849
CP022687
CP023342
CP035487
CP042609
FN649416
CP035335
CP035353
KX528699
CP037908
CP025947
CP026575
CP032421
CP036185
CP032943
MF684783
MG886287
MH674200
CP030113
CP030330
CP041680
CP042592
LT985312
AP010957
FJ004637
NC_011227
NC_014543
CP033763
CP032942
HQ659758
NC_019079
CP038794
DQ286390
NC_010904
LT985291
CP010205
CP016042
CP019023
CP033853
AP019681
JQ776501
JQ776502
JQ776504
NC_021523
CP036183
AP014807
LT985230
AY424310
NC_005248
LT985233
LT985247
LT985254
CP002733
NC_017643
CP035346
CP035357
CP026401
AB182370
NC_028464
KJ721805
CP025855
CP025878
CP025889
CP025926
CP024150
CP031896
CP030922
CP042584
CP026203
CP018940
CP041343
CP021099
CP019278
MH917716
MH917717
CP040266
CP041554
CP045281
CP014075
MH422552
AF449498
CP014074
MG587003
MG587004
CP023856
CP043018
CP041540
JQ418532
NC_019092
CP042948
CP021212
CP023348
CP024250
CP024669
CP025898
CP025909
CP025912
CP025918
CP025922
LT985275
MH450052
MH450053
CP024244
CP024977
CP025885
CP000796
NC_009787
CP027106
CP011334
CP022158
CP026204
CP026400
MG516910
CP019281
KR779901
CP035316
CP037907
CP039300
CP034740
CP035342
CP035358
CP035359
CP035363
CP035365
CP035348
CP029060
CP027396
CP011336
CP011338
CP042869
CP021177
MK293945
KU994859
KU353730
CP026402
CP031139
CP022159
KM107845
CP033380
K00826
NC_019049
CP019906
KM107844
CP014079
CP014087
KM107842
HQ848325
NC_025058
CP032882
CP034732
CP034750
CP035343
KU295136
CP035344
CP024095
AY230888
CP014089
AB182369
CP034391
CP014080
CP020521
CP035326
X01009
KX094567
CP035332
CP019266
CP014091
