PRJDB5126	 Whole genome sequencing of carbapenem-resistant Enterobacteriaceae isolated in Myanmar, The purpose of this project is to investigate the prevalence of carbapenem-resistant Enterobacteriaceae in Asian countries. Special emphasis is laid on plasmids harboring carbapenemase genes responsible for the resistance.	no_data
PRJNA231221	 FDA-ARGOS is a database with public quality-controlled reference genomes for diagnostic use and regulatory science, In May 2014, the FDA and collaborators established a publicly available dAtabase for Reference Grade micrObial Sequences called FDA-ARGOS. With funding support from FDA’s Office of Counterterrorism and Emerging Threats (OCET) and DoD, the FDA-ARGOS team are initially collecting and sequencing 2000 microbes that include biothreat microorganisms, common clinical pathogens and closely related species. Currently, FDA-ARGOS microbial genomes are generated in 3 phases. Generally: Phase 1 entails collection of a previously identified microbe and nucleic acid extraction. Phase 2, the microbial nucleic acids are sequenced and de novo assembled using Illumina and PacBio sequencing platforms at the Institute for Genome Sciences at the University of Maryland (UMD-IGS). Phase 3, the assembled genomes are vetted by an ID-NGS subject matter expert working group consisting of FDA personnel and collaborators and the data are deposited in NCBI databases. The FDA-ARGOS genomes meet the quality metrics for reference-grade genomes for regulatory use. FDA-ARGOS reference genomes have been de novo assembled with high depth of base coverage and placed within a pre-established phylogenetic tree. Each microbial isolate in the database is covered at a minimum of 20X over 95 percent of the assembled core genome. Furthermore, sample specific metadata, raw reads, assemblies, annotation and details of the bioinformatics pipeline are available.	clinical
PRJNA315192	 Routine surveillance of E. coli and Shigella by Public Health England, Routine surveillance of E. coli &amp;amp; Shigella by Public Health England	clinical
PRJNA472644	 Escherichia coli strain:C600 Genome sequencing and assembly, Sequencing of prototypical Escherichia coli strains	no_data
PRJNA534306	 A collection of carbapenemase producing Enterobacteriales from an outbreak investigation Raw sequence reads, The purpose of investigating these isolates was to determine the mechanism of carbapenem resistance and the relatedness of strains in the outbreak	clinical
PRJNA555326	 Simultaneous Infection with Enterobacteriaceae and Pseudomonas aeruginosa harboring Multiple Carbapenemases in a Returning Traveler colonized with Candida auris, Submission of consensus genome assemblies from a critically ill patient with polymicrobial infections due to multi-drug resistant Escherichia coli, Klebsiella pneumoniae, and Pseudomonas aeruginosa who had traveled to India and was also colonized by Candida auris. A precision medicine approach using whole genome sequencing revealed a multiplicity of mobile elements associated with NDM-1, NDM-5, and OXA-181. This case illustrates the rapidly evolving landscape of resistance and its challenges to clinicians.	clinical
PRJNA556438	 Complete microbial genomes for public health in Australia and Southwest Pacific, Complete genomes of microbial pathogens are essential for the phylogenomic analyses that increasingly underpin core public health lab activities. Here, we present complete genomes of pathogen strains of regional importance to the Southwest Pacific and Australia. These enrich the catalogue of globally available complete genomes for public health while providing valuable strains to regional public health labs.	clinical
PRJNA592372	 Comparative genomics of urinary Escherichia coli isolates associated with different clinical phenotypes, Escherichia coli is the most common cause of asymptomatic bacteriuria, cystitis, pyelonephritis and urosepsis. In this study, we investigate the population structure of isolates associated with these different clinical phenotypes and a genetic basis for pathogenicity.	clinical
PRJNA599529	 Escherichia coli strain:2EC1 Genome sequencing, In this project, we isolated antibiotic resistant bacteria from the gut microbiota of healthy individuals in Singapore. Their genomes were sequenced and analysed to identify resistance mechanisms, plasmids and mode of antibiotic resistance gene acquisition.	community
PRJNA602597	 Comparisons of de novo genome assemblies using PacBio, Oxford Nanopore Technologies, and Illumina sequencing platforms, To assess the quality of long read sequencing for de novo genome assembly, raw sequence read data for Escherichia coli and for Drosophila ananassae were generated across multiple sequencing platforms and library preps: PacBio RS II, PacBio Sequel II, PacBio HiFi, Oxford Nanopore Technologies MinION rapid ligation, Oxford Nanopore Technologies MinION extended ligation, and Illumina paired end.	no_data
PRJNA603908	 Conjunction of Modular Beta-lactamase Encoding Gene Amplification with Porin Loss Drives Carbapenem Resistance in ESBL Positive Enterobacteriaceae from Patients with Recurrent Bacteremia, Investigate ESBL-positive Enterobacteriaceae that develop carbapenem resistance through non-carbapenemase-producing mechanisms in cancer patients with recurrent bacteremia. The objective of this study is to characterize clonal, serial isolates that develop carbapenem resistance via non-carbapenemase mechanisms. Our hypothesis is that a proportion of recurrent bacteremia cases due to persistent carriage of the same clonal, re-infecting strains have the ability to develop resistance to carbapenems independent of carbapenemase acquisition within our cancer population. We believe this is occurring through a mobile genetic element amplification mechanism with concomitant outer membrane porin disruption.	clinical
PRJNA611848	 Escherichia coli strain:ARL09/232 Genome sequencing, Complete genome assembly of multidrug-resistant New Delhi metallo-beta-lactamase-1 (NDM-1)- producing Escherichia coli human isolate from New Zealand	clinical
PRJNA616136	 Completion of E. coli ST270 representatives, Completion of two ST270 EIEC genomes for use as references	community
PRJNA630076	 Escherichia coli strain:K56-43-un | isolate:K56-43-un Genome sequencing, Evolution, selection, and spread of antibiotic resistance.	clinical
PRJNA636382	 Complete Genome Sequences of Seven Uropathogenic Escherichia coli Strains Isolated from Postmenopausal Women with Recurrent Urinary Tract Infection, Uropathogenic Escherichia coli (UPEC) is the most common cause of urinary tract infection (UTI). This disease disproportionately affects women and frequently develops into recurrent UTI (rUTI) in postmenopausal women. Here we report the complete genome sequences of seven UPEC isolates obtained from the urine of postmenopausal women suffering from rUTI.	clinical
PRJNA636827	 Nanopore MinION sequencing reveals possible transfer of blaKPC-2 plasmid across bacterial species in two healthcare facilities, Carbapenemase-producing Enterobacteriaceae are a major threat to global public health. Klebsiella pneumoniae carbapenemase (KPC) is the most commonly identified carbapenemase in the U.S. and is frequently found on mobile genetic elements including plasmids, which can be horizontally transmitted between bacteria of the same or different species. Here we describe the results of an epidemiological investigation of KPC-producing bacteria at two healthcare facilities. Using a combination of short-read and long-read whole-genome sequencing, we identified an identical 44 kilobase plasmid carrying the blaKPC-2 gene in four bacterial isolates belonging to three different species (Citrobacter freundii, Klebsiella pneumoniae, and Escherichia coli). The isolates in this investigation were collected from patients who were epidemiologically linked in a region in which KPC was uncommon, suggesting that the antibiotic resistance plasmid was transmitted between these bacterial species. This investigation highlights the importance of long-read sequencing in investigating the relatedness of bacterial plasmids, and in elucidating potential plasmid-mediated outbreaks caused by antibiotic resistant bacteria.	clinical
PRJNA643009	 Escherichia coli strain:EC1 Genome sequencing, Identification and Characterisation of Fosfomycin Resistance in Escherichia coliUrinary Tract Infection Isolates from Australia	clinical
